…
``` r
# Needed guess_max to assign numeric (double) lat/lon column types; add "ND" to NA list 
                       
montgomery
```

    ## # A tibble: 6,634 x 16
    ##    OrgID OrgName ActivityType ActivityMedia StartDate  StartTime LocationID
    ##    <chr> <chr>   <chr>        <chr>         <date>     <time>    <chr>     
    ##  1 USGS~ USGS M~ Sample-Rout~ Surface Water 2000-05-04 12:15     USGS-0159~
    ##  2 USGS~ USGS M~ Sample-Rout~ Surface Water 2000-05-04 12:15     USGS-0159~
    ##  3 USGS~ USGS M~ Sample-Rout~ Surface Water 2000-05-04 12:15     USGS-0159~
    ##  4 USGS~ USGS M~ Sample-Rout~ Surface Water 2000-05-04 12:15     USGS-0159~
    ##  5 USGS~ USGS M~ Sample-Rout~ Surface Water 2000-04-20 08:00     USGS-0159~
    ##  6 USGS~ USGS M~ Sample-Rout~ Surface Water 2000-04-20 08:00     USGS-0159~
    ##  7 USGS~ USGS M~ Sample-Rout~ Surface Water 2000-04-20 08:00     USGS-0159~
    ##  8 USGS~ USGS M~ Sample-Rout~ Surface Water 2000-01-13 09:30     USGS-0159~
    ##  9 USGS~ USGS M~ Sample-Rout~ Surface Water 2000-01-13 09:30     USGS-0159~
    ## 10 USGS~ USGS M~ Sample-Rout~ Surface Water 2000-01-13 09:30     USGS-0159~
    ## # ... with 6,624 more rows, and 9 more variables: HydrologicCondition <chr>,
    ## #   HydrologicEvent <chr>, lat <dbl>, lon <dbl>, CollectionEquipment <chr>,
    ## #   ResultName <chr>, ResultType <chr>, ResultValue <dbl>, ResultUnit <chr>
…
