…
## Select data

Filter most recent results with full set of parameter results

``` r
potomac %>% 
  group_by(Date) %>%
    count() %>% 
    arrange(desc(Date)) 
```

    ## # A tibble: 57 x 2
    ## # Groups:   Date [57]
    ##    Date           n
    ##    <date>     <int>
    ##  1 2021-02-22     5
    ##  2 2021-02-08     5
    ##  3 2020-12-30     2
    ##  4 2020-12-28     2
    ##  5 2020-12-07     2
    ##  6 2020-12-01     5
    ##  7 2020-11-12     5
    ##  8 2020-11-03     2
    ##  9 2020-10-30     2
    ## 10 2020-10-06     5
    ## # ... with 47 more rows
…
